module bank

go 1.20

require (
	github.com/Masterminds/squirrel v1.5.4
	github.com/gofrs/uuid v4.4.0+incompatible
	github.com/gorilla/mux v1.8.0
	github.com/jackc/pgx/v5 v5.5.0
	golang.org/x/crypto v0.14.0
)

require (
	github.com/jackc/pgpassfile v1.0.0 // indirect
	github.com/jackc/pgservicefile v0.0.0-20221227161230-091c0ba34f0a // indirect
	github.com/jackc/puddle/v2 v2.2.1 // indirect
	github.com/lann/builder v0.0.0-20180802200727-47ae307949d0 // indirect
	github.com/lann/ps v0.0.0-20150810152359-62de8c46ede0 // indirect
	golang.org/x/sync v0.1.0 // indirect
	golang.org/x/text v0.13.0 // indirect
)
